extinction_modelling - Heading to extinction?
…
The first thing to normally do with a new script is to load the tidyverse package. This package is actually a collection of packages, and is just a lot of code that has been developed to make coding in R much more friendly. It is the new approach to coding in R and its much better to learn ‘the tidyverse way’. People talk about “Base R” vs “the Tidyvese”, you will ultimately learn both. But start with the tidyverse.

# If you have not installed the tidyverse on your computer before, uncomment the line below and install it. You only need to do that once. You can remove it from your script after you've done that. 
# install.packages("tidyverse")

# once installed we can load the package
# we need to do this every time we use any tidyverse code, so leave that line at the top of your scripts
library(tidyverse)

Now we can read in the csv file using the tidyverse function called read_csv().

# because I put the raw data into a folder called "data" I need to tell R to look in that folder for the file.
read_csv("data/count_data_20spp.csv")

# A tibble: 46,950 x 6
   site_code latitude longitude species_name    year   count
   <chr>        <dbl>     <dbl> <chr>          <dbl>   <dbl>
 1 BI-S1        -41.9      148. Aracana aurita  1992  0     
 2 BI-S1        -41.9      148. Aracana aurita  1993  0.0312
 3 BI-S1        -41.9      148. Aracana aurita  1994  0     
 4 BI-S1        -41.9      148. Aracana aurita  1995 NA     
 5 BI-S1        -41.9      148. Aracana aurita  1996 NA     
 6 BI-S1        -41.9      148. Aracana aurita  1997  0.0312
 7 BI-S1        -41.9      148. Aracana aurita  1998 NA     
 8 BI-S1        -41.9      148. Aracana aurita  1999  0     
 9 BI-S1        -41.9      148. Aracana aurita  2000  0     
10 BI-S1        -41.9      148. Aracana aurita  2001  0     
# ... with 46,940 more rows
…
